<?xml version="1.0" encoding="utf-8"?>
<!-- Generator: Adobe Illustrator 16.0.0, SVG Export Plug-In . SVG Version: 6.00 Build 0)  -->
<!DOCTYPE svg PUBLIC "-//W3C//DTD SVG 1.1//EN" "http://www.w3.org/Graphics/SVG/1.1/DTD/svg11.dtd">
<svg version="1.1" id="圖層_1" xmlns="http://www.w3.org/2000/svg" xmlns:xlink="http://www.w3.org/1999/xlink" x="0px" y="0px"
	 width="80.809px" height="80.808px" viewBox="0 0 80.809 80.808" enable-background="new 0 0 80.809 80.808" xml:space="preserve">
<path fill="#FFFFFF" d="M75.981,64.388c0,7.318-5.934,13.252-13.252,13.252H18.735c-7.32,0-13.254-5.934-13.254-13.252V20.393
	c0-7.32,5.934-13.254,13.254-13.254h43.994c7.318,0,13.252,5.934,13.252,13.254V64.388z"/>
<g>
	<linearGradient id="SVGID_1_" gradientUnits="userSpaceOnUse" x1="9.207" y1="10.8652" x2="71.9427" y2="73.6009">
		<stop  offset="0.0317" style="stop-color:#D1ECFB"/>
		<stop  offset="0.2646" style="stop-color:#76CCF3"/>
		<stop  offset="0.5725" style="stop-color:#57ABE0"/>
		<stop  offset="1" style="stop-color:#227BC0"/>
	</linearGradient>
	<path fill="url(#SVGID_1_)" d="M62.729,7.139H18.735c-7.32,0-13.254,5.934-13.254,13.254v43.995
		c0,7.318,5.934,13.252,13.254,13.252h3.6c-0.232-2.631-0.531-5.197-0.92-7.375c-0.814-4.568-1.549-8.615-2.068-11.457
		c-0.377-2.104-2.816-3.191-3.449-3.441c-0.035-0.012-0.072-0.027-0.109-0.041c-0.025-0.01-0.041-0.016-0.041-0.016h0.004
		c-2.764-1.094-5.018-3.988-5.908-8.965c-1.307-7.33,0.838-16.403,5.336-17.206c4.5-0.803,9.648,6.969,10.955,14.297
		c0.889,4.98-0.227,8.473-2.441,10.455c-0.051,0.045-0.1,0.088-0.15,0.131c-0.543,0.49-2.379,2.328-2.016,4.393
		c0.496,2.846,1.207,6.898,2.021,11.471c0.414,2.324,1.078,5.029,1.83,7.754h14.354c0.359-3.205,0.689-6.773,0.861-10.193
		c0.004-0.205,0.016-0.467,0.037-0.797c0-0.004,0.002-0.012,0.002-0.018c0.258-4.248-4.016-5.357-4.016-5.357
		c0.283-21.411,1.984-35.012,4.027-40.958c1.145-3.332,3.25-4.036,3.766-4.028c0.666,0.011,1.209,0.734,1.166,4.342
		c-0.037,3.218-1.055,33.142-1.273,39.57c-0.004,0.256-0.01,0.514-0.016,0.777c-0.002,0.193-0.008,0.436-0.012,0.709
		c-0.018,0.924-0.043,2.17-0.053,2.854c-0.068,3.814,0.166,8.717,0.459,13.1h12.777c0.9-3.477,1.725-7.078,2.164-10.053
		c0.561-3.793,1.057-7.227,1.445-9.92c0,0,0.17-1.379-1.305-3.176c-1.084-1.322-2.164-3.561-1.77-6.23
		c0.678-4.598,0.85-5.748,0.85-5.748l3.34-16.118c0,0,0.092-0.572,0.43-0.522c0.383,0.056,0.264,0.625,0.264,0.625l-2.121,15.312
		c0,0-0.127,0.967,0.416,1.05l0.213,0.029c0.309,0.046,0.494-0.249,0.596-0.512l3.041-15.562c0,0,0.08-0.576,0.449-0.521
		c0.012,0.001-0.012,0-0.002,0.001c0.012,0.001,0.002-0.001,0.012,0c0.352,0.052,0.27,0.626,0.27,0.626l-1.967,15.781
		c0.029,0.266,0.127,0.56,0.418,0.603l0.211,0.031c0.477,0.07,0.658-0.659,0.693-0.842c0.006-0.025,0.008-0.041,0.008-0.041
		L67.7,27.21c0,0,0-0.005,0.002-0.014c0.016-0.08,0.113-0.547,0.438-0.507c0.004,0,0.006,0,0.01,0c0.002,0,0.004,0.001,0.008,0.001
		c0.281,0.05,0.254,0.482,0.242,0.595c-0.002,0.017-0.004,0.028-0.004,0.028l-1.654,16.367l0.701,0.102
		c0.541,0.082,0.699-0.881,0.699-0.881l2.396-15.271c0,0,0.063-0.576,0.449-0.521c0.314,0.047,0.246,0.622,0.246,0.622
		l-1.463,16.395l-0.01,0.002c-0.002,0.023-0.176,1.197-0.85,5.746c-0.393,2.67-2.031,4.566-3.492,5.451
		c-1.947,1.18-2.172,2.664-2.172,2.664c-0.406,2.691-0.922,6.121-1.482,9.912c-0.42,2.834-0.668,6.314-0.814,9.738h1.779
		c7.318,0,13.252-5.934,13.252-13.252V20.393C75.981,13.073,70.048,7.139,62.729,7.139z"/>
	<line fill="none" stroke="#FFFFFF" stroke-miterlimit="10" x1="30.622" y1="7.139" x2="30.622" y2="77.64"/>
	<line fill="none" stroke="#FFFFFF" stroke-miterlimit="10" x1="53.276" y1="7.139" x2="53.276" y2="77.64"/>
</g>
</svg>
